1_protocal_study/1.uart_rx/uart_rx_tb.vcd
$date
	Tue Jul 13 09:59:41 2021
$end
$version
	Icarus Verilog
$end
$timescale
	1ps
$end
$scope module uart_rx_tb $end
$scope module ur $end
$var wire 1 ! clk $end
$var wire 1 " rx $end
$var reg 1 # bit $end
$var reg 9 $ counter [8:0] $end
$var reg 8 % data [7:0] $end
$var reg 1 & data_valid $end
$var reg 9 ' divisor [8:0] $end
$var reg 4 ( state [3:0] $end
$upscope $end
$upscope $end
$enddefinitions $end
#0
$dumpvars
b0 (
b0 '
0&
b1111010 %
bx $
x#
1"
0!
$end
#1000
1!
#2000
0!
#3000
1!
#4000
0!
#5000
1!
#6000
0!
#7000
1!
#8000
0!
#9000
1!
#10000
0!
#11000
1!
#12000
0!
#13000
1!
#14000
0!
#15000
1!
#16000
0!
#17000
1!
#18000
0!
#19000
1!
#20000
0!
#21000
1!
#22000
0!
#23000
1!
#24000
0!
#25000
1!
#26000
0!
#27000
1!
#28000
0!
#29000
1!
#30000
0!
#31000
1!
#32000
0!
#33000
1!
#34000
0!
#35000
1!
#36000
0!
#37000
1!
#38000
0!
#39000
1!
#40000
0!
#41000
1!
#42000
0!
#43000
1!
#44000
0!
#45000
1!
#46000
0!
#47000
1!
#48000
0!
#49000
1!
#50000
0!
#51000
1!
#52000
0!
#53000
1!
#54000
0!
#55000
1!
#56000
0!
#57000
1!
#58000
0!
#59000
1!
#60000
0!
#61000
1!
#62000
0!
#63000
1!
#64000
0!
#65000
1!
#66000
0!
#67000
1!
#68000
0!
#69000
1!
#70000
0!
#71000
1!
#72000
0!
#73000
1!
#74000
0!
#75000
1!
#76000
0!
#77000
1!
#78000
0!
#79000
1!
#80000
0!
#81000
1!
#82000
0!
#83000
1!
#84000
0!
#85000
1!
#86000
0!
#87000
1!
#88000
0!
#89000
1!
#90000
0!
#91000
1!
#92000
0!
#93000
1!
#94000
0!
#95000
1!
#96000
0!
#97000
1!
#98000
0!
#99000
1!
#100000
b1 (
0!
0"
#101000
1!
1"
#102000
b1 '
0!
#103000
1!
#104000
b10 '
0!
#105000
1!
#106000
b11 '
0!
#107000
1!
#108000
b100 '
0!
#109000
1!
#110000
b101 '
0!
#111000
1!
#112000
b110 '
0!
#113000
1!
#114000
b111 '
0!
#115000
1!
#116000
b1000 '
0!
#117000
1!
#118000
b1001 '
0!
#119000
1!
#120000
b1010 '
0!
#121000
1!
#122000
b1011 '
0!
#123000
1!
#124000
b1100 '
0!
#125000
1!
#126000
b1101 '
0!
#127000
1!
#128000
b1110 '
0!
#129000
1!
#130000
b1111 '
0!
#131000
1!
#132000
b10000 '
0!
#133000
1!
#134000
b10001 '
0!
#135000
1!
#136000
b10010 '
0!
#137000
1!
#138000
b10011 '
0!
#139000
1!
#140000
b10100 '
0!
#141000
1!
#142000
b10101 '
0!
#143000
1!
#144000
b10110 '
0!
#145000
1!
#146000
b10111 '
0!
#147000
1!
#148000
b11000 '
0!
#149000
1!
#150000
b11001 '
0!
#151000
1!
#152000
b11010 '
0!
#153000
1!
#154000
b11011 '
0!
#155000
1!
#156000
b11100 '
0!
#157000
1!
#158000
b11101 '
0!
#159000
1!
#160000
b11110 '
0!
#161000
1!
#162000
b11111 '
0!
#163000
1!
#164000
b100000 '
0!
#165000
1!
#166000
b100001 '
0!
#167000
1!
#168000
b100010 '
0!
#169000
1!
#170000
b100011 '
0!
#171000
1!
#172000
b100100 '
0!
#173000
1!
#174000
b100101 '
0!
#175000
1!
#176000
b100110 '
0!
#177000
1!
#178000
b100111 '
0!
#179000
1!
#180000
b101000 '
0!
#181000
1!
#182000
b101001 '
0!
#183000
1!
#184000
b101010 '
0!
#185000
1!
#186000
b101011 '
0!
#187000
1!
#188000
b101100 '
0!
#189000
1!
#190000
b101101 '
0!
#191000
1!
#192000
b101110 '
0!
#193000
1!
#194000
b101111 '
0!
#195000
1!
#196000
b110000 '
0!
#197000
1!
#198000
b110001 '
0!
#199000
1!
#200000
b110010 '
0!
#201000
1!
#202000
b110011 '
0!
#203000
1!
#204000
b110100 '
0!
#205000
1!
#206000
b110101 '
0!
#207000
1!
#208000
b110110 '
0!
#209000
1!
#210000
b110111 '
0!
#211000
1!
#212000
b111000 '
0!
#213000
1!
#214000
b111001 '
0!
#215000
1!
#216000
b111010 '
0!
#217000
1!
#218000
b111011 '
0!
#219000
1!
#220000
b111100 '
0!
#221000
1!
#222000
b111101 '
0!
#223000
1!
#224000
b111110 '
0!
#225000
1!
#226000
b111111 '
0!
#227000
1!
#228000
b1000000 '
0!
#229000
1!
#230000
b1000001 '
0!
#231000
1!
#232000
b1000010 '
0!
#233000
1!
#234000
b1000011 '
0!
#235000
1!
#236000
b1000100 '
0!
#237000
1!
#238000
b1000101 '
0!
#239000
1!
#240000
b1000110 '
0!
#241000
1!
#242000
b1000111 '
0!
#243000
1!
#244000
b1001000 '
0!
#245000
1!
#246000
b1001001 '
0!
#247000
1!
#248000
b1001010 '
0!
#249000
1!
#250000
b1001011 '
0!
#251000
1!
#252000
b1001100 '
0!
#253000
1!
#254000
b1001101 '
0!
#255000
1!
#256000
b1001110 '
0!
#257000
1!
#258000
b1001111 '
0!
#259000
1!
#260000
b1010000 '
0!
#261000
1!
#262000
b1010001 '
0!
#263000
1!
#264000
b1010010 '
0!
#265000
1!
#266000
b1010011 '
0!
#267000
1!
#268000
b1010100 '
0!
#269000
1!
#270000
b1010101 '
0!
#271000
1!
#272000
b1010110 '
0!
#273000
1!
#274000
b1010111 '
0!
#275000
1!
#276000
b1011000 '
0!
#277000
1!
#278000
b1011001 '
0!
#279000
1!
#280000
b1011010 '
0!
#281000
1!
#282000
b1011011 '
0!
#283000
1!
#284000
b1011100 '
0!
#285000
1!
#286000
b1011101 '
0!
#287000
1!
#288000
b1011110 '
0!
#289000
1!
#290000
b1011111 '
0!
#291000
1!
#292000
b1100000 '
0!
#293000
1!
#294000
b1100001 '
0!
#295000
1!
#296000
b1100010 '
0!
#297000
1!
#298000
b1100011 '
0!
#299000
1!
#300000
b1100100 '
0!
#301000
1!
#302000
b1100101 '
0!
#303000
1!
#304000
b1100110 '
0!
#305000
1!
#306000
b1100111 '
0!
#307000
1!
#308000
b1101000 '
0!
#309000
1!
#310000
b1101001 '
0!
#311000
1!
#312000
b1101010 '
0!
#313000
1!
#314000
b1101011 '
0!
#315000
1!
#316000
b1101100 '
0!
#317000
1!
#318000
b1101101 '
0!
#319000
1!
#320000
b1101110 '
0!
#321000
1!
#322000
b1101111 '
0!
#323000
1!
#324000
b1110000 '
0!
#325000
1!
#326000
b1110001 '
0!
#327000
1!
#328000
b1110010 '
0!
#329000
1!
#330000
b1110011 '
0!
#331000
1!
#332000
b1110100 '
0!
#333000
1!
#334000
b1110101 '
0!
#335000
1!
#336000
b1110110 '
0!
#337000
1!
#338000
b1110111 '
0!
#339000
1!
#340000
b1111000 '
0!
#341000
1!
#342000
b1111001 '
0!
#343000
1!
#344000
b1111010 '
0!
#345000
1!
#346000
b1111011 '
0!
#347000
1!
#348000
b1111100 '
0!
#349000
1!
#350000
b1111101 '
0!
#351000
1!
#352000
b1111110 '
0!
#353000
1!
#354000
b1111111 '
0!
#355000
1!
#356000
b10000000 '
0!
#357000
1!
#358000
b10000001 '
0!
#359000
1!
#360000
b10000010 '
0!
#361000
1!
#362000
b10000011 '
0!
#363000
1!
#364000
b10000100 '
0!
#365000
1!
#366000
b10000101 '
0!
#367000
1!
#368000
b10000110 '
0!
#369000
1!
#370000
b10000111 '
0!
#371000
1!
#372000
b10001000 '
0!
#373000
1!
#374000
b10001001 '
0!
#375000
1!
#376000
b10001010 '
0!
#377000
1!
#378000
b10001011 '
0!
#379000
1!
#380000
b10001100 '
0!
#381000
1!
#382000
b10001101 '
0!
#383000
1!
#384000
b10001110 '
0!
#385000
1!
#386000
b10001111 '
0!
#387000
1!
#388000
b10010000 '
0!
#389000
1!
#390000
b10010001 '
0!
#391000
1!
#392000
b10010010 '
0!
#393000
1!
#394000
b10010011 '
0!
#395000
1!
#396000
b10010100 '
0!
#397000
1!
#398000
b10010101 '
0!
#399000
1!
#400000
b10010110 '
0!
#401000
1!
#402000
b10010111 '
0!
#403000
1!
#404000
b10011000 '
0!
#405000
1!
#406000
b10011001 '
0!
#407000
1!
#408000
b10011010 '
0!
#409000
1!
#410000
b10011011 '
0!
#411000
1!
#412000
b10011100 '
0!
#413000
1!
#414000
b10011101 '
0!
#415000
1!
#416000
b10011110 '
0!
#417000
1!
#418000
b10011111 '
0!
#419000
1!
#420000
b10100000 '
0!
#421000
1!
#422000
b10100001 '
0!
#423000
1!
#424000
b10100010 '
0!
#425000
1!
#426000
b10100011 '
0!
#427000
1!
#428000
b10100100 '
0!
#429000
1!
#430000
b10100101 '
0!
#431000
1!
#432000
b10100110 '
0!
#433000
1!
#434000
b10100111 '
0!
#435000
1!
#436000
b10101000 '
0!
#437000
1!
#438000
b10101001 '
0!
#439000
1!
#440000
b10101010 '
0!
#441000
1!
#442000
b10101011 '
0!
#443000
1!
#444000
b10101100 '
0!
#445000
1!
#446000
b10101101 '
0!
#447000
1!
#448000
b10101110 '
0!
#449000
1!
#450000
b10101111 '
0!
#451000
1!
#452000
b10110000 '
0!
#453000
1!
#454000
b10110001 '
0!
#455000
1!
#456000
b10110010 '
0!
#457000
1!
#458000
b10110011 '
0!
#459000
1!
#460000
b10110100 '
0!
#461000
1!
#462000
b10110101 '
0!
#463000
1!
#464000
b10110110 '
0!
#465000
1!
#466000
b10110111 '
0!
#467000
1!
#468000
b10111000 '
0!
#469000
1!
#470000
b10111001 '
0!
#471000
1!
#472000
b10111010 '
0!
#473000
1!
#474000
b10111011 '
0!
#475000
1!
#476000
b10111100 '
0!
#477000
1!
#478000
b10111101 '
0!
#479000
1!
#480000
b10111110 '
0!
#481000
1!
#482000
b10111111 '
0!
#483000
1!
#484000
b11000000 '
0!
#485000
1!
#486000
b11000001 '
0!
#487000
1!
#488000
b11000010 '
0!
#489000
1!
#490000
b11000011 '
0!
#491000
1!
#492000
b11000100 '
0!
#493000
1!
#494000
b11000101 '
0!
#495000
1!
#496000
b11000110 '
0!
#497000
1!
#498000
b11000111 '
0!
#499000
1!
#500000
b11001000 '
0!
#501000
1!
#502000
b11001001 '
0!
#503000
1!
#504000
b11001010 '
0!
#505000
1!
#506000
b11001011 '
0!
#507000
1!
#508000
b11001100 '
0!
#509000
1!
#510000
b11001101 '
0!
#511000
1!
#512000
b11001110 '
0!
#513000
1!
#514000
b11001111 '
0!
#515000
1!
#516000
b11010000 '
0!
#517000
1!
#518000
b11010001 '
0!
#519000
1!
#520000
b11010010 '
0!
#521000
1!
#522000
b11010011 '
0!
#523000
1!
#524000
b11010100 '
0!
#525000
1!
#526000
b11010101 '
0!
#527000
1!
#528000
b11010110 '
0!
#529000
1!
#530000
b11010111 '
0!
#531000
1!
#532000
b11011000 '
0!
#533000
1!
#534000
b11011001 '
0!
#535000
1!
#536000
b11011010 '
0!
#537000
1!
#538000
b11011011 '
0!
#539000
1!
#540000
b11011100 '
0!
#541000
1!
#542000
b11011101 '
0!
#543000
1!
#544000
b11011110 '
0!
#545000
1!
#546000
b11011111 '
0!
#547000
1!
#548000
b11100000 '
0!
#549000
1!
#550000
b11100001 '
0!
#551000
1!
#552000
b11100010 '
0!
#553000
1!
#554000
b11100011 '
0!
#555000
1!
#556000
b11100100 '
0!
#557000
1!
#558000
b11100101 '
0!
#559000
1!
#560000
b11100110 '
0!
#561000
1!
#562000
b11100111 '
0!
#563000
1!
#564000
b11101000 '
0!
#565000
1!
#566000
b11101001 '
0!
#567000
1!
#568000
b11101010 '
0!
#569000
1!
#570000
b11101011 '
0!
#571000
1!
#572000
b11101100 '
0!
#573000
1!
#574000
b11101101 '
0!
#575000
1!
#576000
b11101110 '
0!
#577000
1!
#578000
b11101111 '
0!
#579000
1!
#580000
b11110000 '
0!
#581000
1!
#582000
b11110001 '
0!
#583000
1!
#584000
b11110010 '
0!
#585000
1!
#586000
b11110011 '
0!
#587000
1!
#588000
b11110100 '
0!
#589000
1!
#590000
b11110101 '
0!
#591000
1!
#592000
b11110110 '
0!
#593000
1!
#594000
b11110111 '
0!
#595000
1!
#596000
b11111000 '
0!
#597000
1!
#598000
b11111001 '
0!
#599000
1!
#600000
b11111010 '
0!
#601000
1!
#602000
b11111011 '
0!
#603000
1!
#604000
b11111100 '
0!
#605000
1!
#606000
b11111101 '
0!
#607000
1!
#608000
b11111110 '
0!
#609000
1!
#610000
b11111111 '
0!
#611000
1!
#612000
b100000000 '
0!
#613000
1!
#614000
b100000001 '
0!
#615000
1!
#616000
b100000010 '
0!
#617000
1!
#618000
b100000011 '
0!
#619000
1!
#620000
b100000100 '
0!
#621000
1!
#622000
b100000101 '
0!
#623000
1!
#624000
b100000110 '
0!
#625000
1!
#626000
b100000111 '
0!
#627000
1!
#628000
b100001000 '
0!
#629000
1!
#630000
b100001001 '
0!
#631000
1!
#632000
b100001010 '
0!
#633000
1!
#634000
b100001011 '
0!
#635000
1!
#636000
b100001100 '
0!
#637000
1!
#638000
b100001101 '
0!
#639000
1!
#640000
b100001110 '
0!
#641000
1!
#642000
b100001111 '
0!
#643000
1!
#644000
b100010000 '
0!
#645000
1!
#646000
b100010001 '
0!
#647000
1!
#648000
b100010010 '
0!
#649000
1!
#650000
b100010011 '
0!
#651000
1!
#652000
b100010100 '
0!
#653000
1!
#654000
b100010101 '
0!
#655000
1!
#656000
b100010110 '
0!
#657000
1!
#658000
b100010111 '
0!
#659000
1!
#660000
b100011000 '
0!
#661000
1!
#662000
b100011001 '
0!
#663000
1!
#664000
b100011010 '
0!
#665000
1!
#666000
b100011011 '
0!
#667000
1!
#668000
b100011100 '
0!
#669000
1!
#670000
b100011101 '
0!
#671000
1!
#672000
b0 $
b0 '
b10 (
0#
0!
#673000
1!
#674000
b1 $
b1 '
0!
#675000
1!
#676000
b10 $
b10 '
0!
#677000
1!
#678000
b11 $
b11 '
0!
#679000
1!
#680000
b100 $
b100 '
0!
#681000
1!
#682000
b101 $
b101 '
0!
#683000
1!
#684000
b110 $
b110 '
0!
#685000
1!
#686000
b111 $
b111 '
0!
#687000
1!
#688000
b1000 $
b1000 '
0!
#689000
1!
#690000
b1001 $
b1001 '
0!
#691000
1!
#692000
b1010 $
b1010 '
0!
#693000
1!
#694000
b1011 $
b1011 '
0!
#695000
1!
#696000
b1100 $
b1100 '
0!
#697000
1!
#698000
b1101 $
b1101 '
0!
#699000
1!
#700000
b1110 $
b1110 '
0!
#701000
1!
#702000
b1111 $
b1111 '
0!
#703000
1!
#704000
b10000 $
b10000 '
0!
#705000
1!
#706000
b10001 $
b10001 '
0!
#707000
1!
#708000
b10010 $
b10010 '
0!
#709000
1!
#710000
b10011 $
b10011 '
0!
#711000
1!
#712000
b10100 $
b10100 '
0!
#713000
1!
#714000
b10101 $
b10101 '
0!
#715000
1!
#716000
b10110 $
b10110 '
0!
#717000
1!
#718000
b10111 $
b10111 '
0!
#719000
1!
#720000
b11000 $
b11000 '
0!
#721000
1!
#722000
b11001 $
b11001 '
0!
#723000
1!
#724000
b11010 $
b11010 '
0!
#725000
1!
#726000
b11011 $
b11011 '
0!
#727000
1!
#728000
b11100 $
b11100 '
0!
#729000
1!
#730000
b11101 $
b11101 '
0!
#731000
1!
#732000
b11110 $
b11110 '
0!
#733000
1!
#734000
b11111 $
b11111 '
0!
#735000
1!
#736000
b100000 $
b100000 '
0!
#737000
1!
#738000
b100001 $
b100001 '
0!
#739000
1!
#740000
b100010 $
b100010 '
0!
#741000
1!
#742000
b100011 $
b100011 '
0!
#743000
1!
#744000
b100100 $
b100100 '
0!
#745000
1!
#746000
b100101 $
b100101 '
0!
#747000
1!
#748000
b100110 $
b100110 '
0!
#749000
1!
#750000
b100111 $
b100111 '
0!
#751000
1!
#752000
b101000 $
b101000 '
0!
#753000
1!
#754000
b101001 $
b101001 '
0!
#755000
1!
#756000
b101010 $
b101010 '
0!
#757000
1!
#758000
b101011 $
b101011 '
0!
#759000
1!
#760000
b101100 $
b101100 '
0!
#761000
1!
#762000
b101101 $
b101101 '
0!
#763000
1!
#764000
b101110 $
b101110 '
0!
#765000
1!
#766000
b101111 $
b101111 '
0!
#767000
1!
#768000
b110000 $
b110000 '
0!
#769000
1!
#770000
b110001 $
b110001 '
0!
#771000
1!
#772000
b110010 $
b110010 '
0!
#773000
1!
#774000
b110011 $
b110011 '
0!
#775000
1!
#776000
b110100 $
b110100 '
0!
#777000
1!
#778000
b110101 $
b110101 '
0!
#779000
1!
#780000
b110110 $
b110110 '
0!
#781000
1!
#782000
b110111 $
b110111 '
0!
#783000
1!
#784000
b111000 $
b111000 '
0!
#785000
1!
#786000
b111001 $
b111001 '
0!
#787000
1!
#788000
b111010 $
b111010 '
0!
#789000
1!
#790000
b111011 $
b111011 '
0!
#791000
1!
#792000
b111100 $
b111100 '
0!
#793000
1!
#794000
b111101 $
b111101 '
0!
#795000
1!
#796000
b111110 $
b111110 '
0!
#797000
1!
#798000
b111111 $
b111111 '
0!
#799000
1!
#800000
b1000000 $
b1000000 '
0!
#801000
1!
#802000
b1000001 $
b1000001 '
0!
#803000
1!
#804000
b1000010 $
b1000010 '
0!
#805000
1!
#806000
b1000011 $
b1000011 '
0!
#807000
1!
#808000
b1000100 $
b1000100 '
0!
#809000
1!
#810000
b1000101 $
b1000101 '
0!
#811000
1!
#812000
b1000110 $
b1000110 '
0!
#813000
1!
#814000
b1000111 $
b1000111 '
0!
#815000
1!
#816000
b1001000 $
b1001000 '
0!
#817000
1!
#818000
b1001001 $
b1001001 '
0!
#819000
1!
#820000
b1001010 $
b1001010 '
0!
#821000
1!
#822000
b1001011 $
b1001011 '
0!
#823000
1!
#824000
b1001100 $
b1001100 '
0!
#825000
1!
#826000
b1001101 $
b1001101 '
0!
#827000
1!
#828000
b1001110 $
b1001110 '
0!
#829000
1!
#830000
b1001111 $
b1001111 '
0!
#831000
1!
#832000
b1010000 $
b1010000 '
0!
#833000
1!
#834000
b1010001 $
b1010001 '
0!
#835000
1!
#836000
b1010010 $
b1010010 '
0!
#837000
1!
#838000
b1010011 $
b1010011 '
0!
#839000
1!
#840000
b1010100 $
b1010100 '
0!
#841000
1!
#842000
b1010101 $
b1010101 '
0!
#843000
1!
#844000
b1010110 $
b1010110 '
0!
#845000
1!
#846000
b1010111 $
b1010111 '
0!
#847000
1!
#848000
b1011000 $
b1011000 '
0!
#849000
1!
#850000
b1011001 $
b1011001 '
0!
#851000
1!
#852000
b1011010 $
b1011010 '
0!
#853000
1!
#854000
b1011011 $
b1011011 '
0!
#855000
1!
#856000
b1011100 $
b1011100 '
0!
#857000
1!
#858000
b1011101 $
b1011101 '
0!
#859000
1!
#860000
b1011110 $
b1011110 '
0!
#861000
1!
#862000
b1011111 $
b1011111 '
0!
#863000
1!
#864000
b1100000 $
b1100000 '
0!
#865000
1!
#866000
b1100001 $
b1100001 '
0!
#867000
1!
#868000
b1100010 $
b1100010 '
0!
#869000
1!
#870000
b1100011 $
b1100011 '
0!
#871000
1!
#872000
b1100100 $
b1100100 '
0!
#873000
1!
#874000
b1100101 $
b1100101 '
0!
#875000
1!
#876000
b1100110 $
b1100110 '
0!
#877000
1!
#878000
b1100111 $
b1100111 '
0!
#879000
1!
#880000
b1101000 $
b1101000 '
0!
#881000
1!
#882000
b1101001 $
b1101001 '
0!
#883000
1!
#884000
b1101010 $
b1101010 '
0!
#885000
1!
#886000
b1101011 $
b1101011 '
0!
#887000
1!
#888000
b1101100 $
b1101100 '
0!
#889000
1!
#890000
b1101101 $
b1101101 '
0!
#891000
1!
#892000
b1101110 $
b1101110 '
0!
#893000
1!
#894000
b1101111 $
b1101111 '
0!
#895000
1!
#896000
b1110000 $
b1110000 '
0!
#897000
1!
#898000
b1110001 $
b1110001 '
0!
#899000
1!
#900000
b1110010 $
b1110010 '
0!
#901000
1!
#902000
b1110011 $
b1110011 '
0!
#903000
1!
#904000
b1110100 $
b1110100 '
0!
#905000
1!
#906000
b1110101 $
b1110101 '
0!
#907000
1!
#908000
b1110110 $
b1110110 '
0!
#909000
1!
#910000
b1110111 $
b1110111 '
0!
#911000
1!
#912000
b1111000 $
b1111000 '
0!
#913000
1!
#914000
b1111001 $
b1111001 '
0!
#915000
1!
#916000
b1111010 $
b1111010 '
0!
#917000
1!
#918000
b1111011 $
b1111011 '
0!
#919000
1!
#920000
b1111100 $
b1111100 '
0!
#921000
1!
#922000
b1111101 $
b1111101 '
0!
#923000
1!
#924000
b1111110 $
b1111110 '
0!
#925000
1!
#926000
b1111111 $
b1111111 '
0!
#927000
1!
#928000
b10000000 $
b10000000 '
0!
#929000
1!
#930000
b10000001 $
b10000001 '
0!
#931000
1!
#932000
b10000010 $
b10000010 '
0!
#933000
1!
#934000
b10000011 $
b10000011 '
0!
#935000
1!
#936000
b10000100 $
b10000100 '
0!
#937000
1!
#938000
b10000101 $
b10000101 '
0!
#939000
1!
#940000
b10000110 $
b10000110 '
0!
#941000
1!
#942000
b10000111 $
b10000111 '
0!
#943000
1!
#944000
b10001000 $
b10001000 '
0!
#945000
1!
#946000
b10001001 $
b10001001 '
0!
#947000
1!
#948000
b10001010 $
b10001010 '
0!
#949000
1!
#950000
b10001011 $
b10001011 '
0!
#951000
1!
#952000
b10001100 $
b10001100 '
0!
#953000
1!
#954000
b10001101 $
b10001101 '
0!
#955000
1!
#956000
b10001110 $
b10001110 '
0!
#957000
1!
#958000
b10001111 $
b10001111 '
0!
#959000
1!
0"
#960000
b10010000 '
0!
#961000
1!
#962000
b10010001 '
0!
#963000
1!
#964000
b10010010 '
0!
#965000
1!
#966000
b10010011 '
0!
#967000
1!
#968000
b10010100 '
0!
#969000
1!
#970000
b10010101 '
0!
#971000
1!
#972000
b10010110 '
0!
#973000
1!
#974000
b10010111 '
0!
#975000
1!
#976000
b10011000 '
0!
#977000
1!
#978000
b10011001 '
0!
#979000
1!
#980000
b10011010 '
0!
#981000
1!
#982000
b10011011 '
0!
#983000
1!
#984000
b10011100 '
0!
#985000
1!
#986000
b10011101 '
0!
#987000
1!
#988000
b10011110 '
0!
#989000
1!
#990000
b10011111 '
0!
#991000
1!
#992000
b10100000 '
0!
#993000
1!
#994000
b10100001 '
0!
#995000
1!
#996000
b10100010 '
0!
#997000
1!
#998000
b10100011 '
0!
#999000
1!
#1000000
b10100100 '
0!
#1001000
1!
#1002000
b10100101 '
0!
#1003000
1!
#1004000
b10100110 '
0!
#1005000
1!
#1006000
b10100111 '
0!
#1007000
1!
#1008000
b10101000 '
0!
#1009000
1!
#1010000
b10101001 '
0!
#1011000
1!
#1012000
b10101010 '
0!
#1013000
1!
#1014000
b10101011 '
0!
#1015000
1!
#1016000
b10101100 '
0!
#1017000
1!
#1018000
b10101101 '
0!
#1019000
1!
#1020000
b10101110 '
0!
#1021000
1!
#1022000
b10101111 '
0!
#1023000
1!
#1024000
b10110000 '
0!
#1025000
1!
#1026000
b10110001 '
0!
#1027000
1!
#1028000
b10110010 '
0!
#1029000
1!
#1030000
b10110011 '
0!
#1031000
1!
#1032000
b10110100 '
0!
#1033000
1!
#1034000
b10110101 '
0!
#1035000
1!
#1036000
b10110110 '
0!
#1037000
1!
#1038000
b10110111 '
0!
#1039000
1!
#1040000
b10111000 '
0!
#1041000
1!
#1042000
b10111001 '
0!
#1043000
1!
#1044000
b10111010 '
0!
#1045000
1!
#1046000
b10111011 '
0!
#1047000
1!
#1048000
b10111100 '
0!
#1049000
1!
#1050000
b10111101 '
0!
#1051000
1!
#1052000
b10111110 '
0!
#1053000
1!
#1054000
b10111111 '
0!
#1055000
1!
#1056000
b11000000 '
0!
#1057000
1!
#1058000
b11000001 '
0!
#1059000
1!
#1060000
b11000010 '
0!
#1061000
1!
#1062000
b11000011 '
0!
#1063000
1!
#1064000
b11000100 '
0!
#1065000
1!
#1066000
b11000101 '
0!
#1067000
1!
#1068000
b11000110 '
0!
#1069000
1!
#1070000
b11000111 '
0!
#1071000
1!
#1072000
b11001000 '
0!
#1073000
1!
#1074000
b11001001 '
0!
#1075000
1!
#1076000
b11001010 '
0!
#1077000
1!
#1078000
b11001011 '
0!
#1079000
1!
#1080000
b11001100 '
0!
#1081000
1!
#1082000
b11001101 '
0!
#1083000
1!
#1084000
b11001110 '
0!
#1085000
1!
#1086000
b11001111 '
0!
#1087000
1!
#1088000
b11010000 '
0!
#1089000
1!
#1090000
b11010001 '
0!
#1091000
1!
#1092000
b11010010 '
0!
#1093000
1!
#1094000
b11010011 '
0!
#1095000
1!
#1096000
b11010100 '
0!
#1097000
1!
#1098000
b11010101 '
0!
#1099000
1!
#1100000
b11010110 '
0!
#1101000
1!
#1102000
b11010111 '
0!
#1103000
1!
#1104000
b11011000 '
0!
#1105000
1!
#1106000
b11011001 '
0!
#1107000
1!
#1108000
b11011010 '
0!
#1109000
1!
#1110000
b11011011 '
0!
#1111000
1!
#1112000
b11011100 '
0!
#1113000
1!
#1114000
b11011101 '
0!
#1115000
1!
#1116000
b11011110 '
0!
#1117000
1!
#1118000
b11011111 '
0!
#1119000
1!
#1120000
b11100000 '
0!
#1121000
1!
#1122000
b11100001 '
0!
#1123000
1!
#1124000
b11100010 '
0!
#1125000
1!
#1126000
b11100011 '
0!
#1127000
1!
#1128000
b11100100 '
0!
#1129000
1!
#1130000
b11100101 '
0!
#1131000
1!
#1132000
b11100110 '
0!
#1133000
1!
#1134000
b11100111 '
0!
#1135000
1!
#1136000
b11101000 '
0!
#1137000
1!
#1138000
b11101001 '
0!
#1139000
1!
#1140000
b11101010 '
0!
#1141000
1!
#1142000
b11101011 '
0!
#1143000
1!
#1144000
b11101100 '
0!
#1145000
1!
#1146000
b11101101 '
0!
#1147000
1!
#1148000
b11101110 '
0!
#1149000
1!
#1150000
b11101111 '
0!
#1151000
1!
#1152000
b11110000 '
0!
#1153000
1!
#1154000
b11110001 '
0!
#1155000
1!
#1156000
b11110010 '
0!
#1157000
1!
#1158000
b11110011 '
0!
#1159000
1!
#1160000
b11110100 '
0!
#1161000
1!
#1162000
b11110101 '
0!
#1163000
1!
#1164000
b11110110 '
0!
#1165000
1!
#1166000
b11110111 '
0!
#1167000
1!
#1168000
b11111000 '
0!
#1169000
1!
#1170000
b11111001 '
0!
#1171000
1!
#1172000
b11111010 '
0!
#1173000
1!
#1174000
b11111011 '
0!
#1175000
1!
#1176000
b11111100 '
0!
#1177000
1!
#1178000
b11111101 '
0!
#1179000
1!
#1180000
b11111110 '
0!
#1181000
1!
#1182000
b11111111 '
0!
#1183000
1!
#1184000
b100000000 '
0!
#1185000
1!
#1186000
b100000001 '
0!
#1187000
1!
#1188000
b100000010 '
0!
#1189000
1!
#1190000
b100000011 '
0!
#1191000
1!
#1192000
b100000100 '
0!
#1193000
1!
#1194000
b100000101 '
0!
#1195000
1!
#1196000
b100000110 '
0!
#1197000
1!
#1198000
b100000111 '
0!
#1199000
1!
#1200000
b100001000 '
0!
#1201000
1!
#1202000
b100001001 '
0!
#1203000
1!
#1204000
b100001010 '
0!
#1205000
1!
#1206000
b100001011 '
0!
#1207000
1!
#1208000
b100001100 '
0!
#1209000
1!
#1210000
b100001101 '
0!
#1211000
1!
#1212000
b100001110 '
0!
#1213000
1!
#1214000
b100001111 '
0!
#1215000
1!
#1216000
b100010000 '
0!
#1217000
1!
#1218000
b100010001 '
0!
#1219000
1!
#1220000
b100010010 '
0!
#1221000
1!
#1222000
b100010011 '
0!
#1223000
1!
#1224000
b100010100 '
0!
#1225000
1!
#1226000
b100010101 '
0!
#1227000
1!
#1228000
b100010110 '
0!
#1229000
1!
#1230000
b100010111 '
0!
#1231000
1!
#1232000
b100011000 '
0!
#1233000
1!
#1234000
b100011001 '
0!
#1235000
1!
#1236000
b100011010 '
0!
#1237000
1!
#1238000
b100011011 '
0!
#1239000
1!
#1240000
b100011100 '
0!
#1241000
1!
#1242000
b100011101 '
0!
#1243000
1!
#1244000
b0 $
b0 '
b11 (
0!
#1245000
1!
1"
#1246000
b1 $
b1 '
0!
#1247000
1!
#1248000
b10 $
b10 '
0!
#1249000
1!
#1250000
b11 $
b11 '
0!
#1251000
1!
#1252000
b100 $
b100 '
0!
#1253000
1!
#1254000
b101 $
b101 '
0!
#1255000
1!
#1256000
b110 $
b110 '
0!
#1257000
1!
#1258000
b111 $
b111 '
0!
#1259000
1!
#1260000
b1000 $
b1000 '
0!
#1261000
1!
#1262000
b1001 $
b1001 '
0!
#1263000
1!
#1264000
b1010 $
b1010 '
0!
#1265000
1!
#1266000
b1011 $
b1011 '
0!
#1267000
1!
#1268000
b1100 $
b1100 '
0!
#1269000
1!
#1270000
b1101 $
b1101 '
0!
#1271000
1!
#1272000
b1110 $
b1110 '
0!
#1273000
1!
#1274000
b1111 $
b1111 '
0!
#1275000
1!
#1276000
b10000 $
b10000 '
0!
#1277000
1!
#1278000
b10001 $
b10001 '
0!
#1279000
1!
#1280000
b10010 $
b10010 '
0!
#1281000
1!
#1282000
b10011 $
b10011 '
0!
#1283000
1!
#1284000
b10100 $
b10100 '
0!
#1285000
1!
#1286000
b10101 $
b10101 '
0!
#1287000
1!
#1288000
b10110 $
b10110 '
0!
#1289000
1!
#1290000
b10111 $
b10111 '
0!
#1291000
1!
#1292000
b11000 $
b11000 '
0!
#1293000
1!
#1294000
b11001 $
b11001 '
0!
#1295000
1!
#1296000
b11010 $
b11010 '
0!
#1297000
1!
#1298000
b11011 $
b11011 '
0!
#1299000
1!
#1300000
b11100 $
b11100 '
0!
#1301000
1!
#1302000
b11101 $
b11101 '
0!
#1303000
1!
#1304000
b11110 $
b11110 '
0!
#1305000
1!
#1306000
b11111 $
b11111 '
0!
#1307000
1!
#1308000
b100000 $
b100000 '
0!
#1309000
1!
#1310000
b100001 $
b100001 '
0!
